Introducción a R y Tidyverse II
…
.line-space1-7[.font110[Continuaremos usando la base de datos del ECA  sobre la [erradicación de la infección por *Helicobácter Pylori*](https://www.nature.com/articles/s41598-018-27482-2) explicado en la [sesión 02](https://healthinnovation.github.io/curso-introduccion-r-tidyverse/sesion_02/#14). Recordar siempre cargar tidyverse (`library()`)]]

.scroll-output350[

```r
trial_data <- readxl::read_excel("data/researchdata.xlsx") %>%
  janitor::clean_names() %>%
  rename(
    follow_4_weeks = follow_up13c_ubt_4_weeks_after_therapy
  )
trial_data
```

```
## # A tibble: 400 × 10
##    patient_number baseli…¹ rando…² follo…³ adver…⁴ adver…⁵ adver…⁶ compl…⁷ uncom…⁸ per_p…⁹
##             <dbl> <chr>    <chr>   <chr>   <chr>   <chr>   <chr>   <chr>   <chr>   <chr>  
##  1              1 Positive group B Negati… No      NA      NA      Yes     NA      Yes    
##  2              2 Positive group A Negati… Yes     Fatigue Mild    Yes     NA      Yes    
##  3              3 Positive group B Negati… No      NA      NA      Yes     NA      Yes    
##  4              4 Positive group A Positi… Yes     Abdomi… Mild    Yes     NA      Yes    
##  5              5 Positive group A Negati… Yes     Drowsi… Mild    Yes     NA      Yes    
##  6              6 Positive group A Negati… No      NA      NA      Yes     NA      Yes    
##  7              7 Positive group B Negati… No      NA      NA      Yes     NA      Yes    
##  8              8 Positive group A Negati… No      NA      NA      Yes     NA      Yes    
##  9              9 Positive group A Negati… No      NA      NA      Yes     NA      Yes    
## 10             10 Positive group A NA      NA      NA      NA      No      lost t… No     
## # … with 390 more rows, and abbreviated variable names ¹​baseline_13c_ubt,
## #   ²​randomized_group, ³​follow_4_weeks, ⁴​adverse_drug_reactions,
## #   ⁵​adverse_drug_reactions_content, ⁶​adverse_drug_reaction_classified,
## #   ⁷​complete_the_study, ⁸​uncompleted_reason, ⁹​per_protocol_analysis
```
…
.pull-left[

```r
gapminder_wider <- gapminder::gapminder %>%
  pivot_wider(
    names_from = year,
    values_from = c(lifeExp:gdpPercap)
  )
```
]

.pull-right[.scroll-output325[

```
## # A tibble: 142 × 38
##    country    conti…¹ lifeE…² lifeE…³ lifeE…⁴
##    <fct>      <fct>     <dbl>   <dbl>   <dbl>
##  1 Afghanist… Asia       28.8    30.3    32.0
##  2 Albania    Europe     55.2    59.3    64.8
##  3 Algeria    Africa     43.1    45.7    48.3
##  4 Angola     Africa     30.0    32.0    34  
##  5 Argentina  Americ…    62.5    64.4    65.1
##  6 Australia  Oceania    69.1    70.3    70.9
##  7 Austria    Europe     66.8    67.5    69.5
##  8 Bahrain    Asia       50.9    53.8    56.9
##  9 Bangladesh Asia       37.5    39.3    41.2
## 10 Belgium    Europe     68      69.2    70.2
## # … with 132 more rows, 33 more variables:
## #   lifeExp_1967 <dbl>, lifeExp_1972 <dbl>,
## #   lifeExp_1977 <dbl>, lifeExp_1982 <dbl>,
## #   lifeExp_1987 <dbl>, lifeExp_1992 <dbl>,
## #   lifeExp_1997 <dbl>, lifeExp_2002 <dbl>,
## #   lifeExp_2007 <dbl>, pop_1952 <int>,
## #   pop_1957 <int>, pop_1962 <int>, …
```
…
.pull-left[.scroll-output350[

```
## # A tibble: 142 × 39
## # Rowwise: 
##    country conti…¹ avg_l…² lifeE…³ lifeE…⁴
##    <fct>   <fct>     <dbl>   <dbl>   <dbl>
##  1 Afghan… Asia       30.4    28.8    30.3
##  2 Albania Europe     59.8    55.2    59.3
##  3 Algeria Africa     45.7    43.1    45.7
##  4 Angola  Africa     32.0    30.0    32.0
##  5 Argent… Americ…    64.0    62.5    64.4
##  6 Austra… Oceania    70.1    69.1    70.3
##  7 Austria Europe     67.9    66.8    67.5
##  8 Bahrain Asia       53.9    50.9    53.8
##  9 Bangla… Asia       39.3    37.5    39.3
## 10 Belgium Europe     69.2    68      69.2
## # … with 132 more rows, 34 more
## #   variables: lifeExp_1962 <dbl>,
## #   lifeExp_1967 <dbl>,
## #   lifeExp_1972 <dbl>,
## #   lifeExp_1977 <dbl>,
## #   lifeExp_1982 <dbl>,
## #   lifeExp_1987 <dbl>, …
```
…
El uso de `c()` podría ser suficiente para algunos casos, pero es muy limitante... si quisieramos seleccionar bloques de columnas (`var1:var100`) o usar alguna función `tidyselect` como por ejemplo `starts_with()`, simplemente no podríamos. Para ello emplearemos `c_across()` en "reemplazo". Por ejemplo, para obtener el promedio de esperanza de vida de todos los años registrados.

.scroll-output300[

```r
gapminder_wider %>%
  rowwise() %>%
  mutate(
    avg_lifeExp = mean(c_across(starts_with("lifeExp"))),
    .after = "continent"
  )
```

```
## # A tibble: 142 × 39
## # Rowwise: 
##    country     continent avg_l…¹ lifeE…² lifeE…³ lifeE…⁴ lifeE…⁵ lifeE…⁶ lifeE…⁷
##    <fct>       <fct>       <dbl>   <dbl>   <dbl>   <dbl>   <dbl>   <dbl>   <dbl>
##  1 Afghanistan Asia         37.5    28.8    30.3    32.0    34.0    36.1    38.4
##  2 Albania     Europe       68.4    55.2    59.3    64.8    66.2    67.7    68.9
##  3 Algeria     Africa       59.0    43.1    45.7    48.3    51.4    54.5    58.0
##  4 Angola      Africa       37.9    30.0    32.0    34      36.0    37.9    39.5
##  5 Argentina   Americas     69.1    62.5    64.4    65.1    65.6    67.1    68.5
##  6 Australia   Oceania      74.7    69.1    70.3    70.9    71.1    71.9    73.5
##  7 Austria     Europe       73.1    66.8    67.5    69.5    70.1    70.6    72.2
##  8 Bahrain     Asia         65.6    50.9    53.8    56.9    59.9    63.3    65.6
##  9 Bangladesh  Asia         49.8    37.5    39.3    41.2    43.5    45.3    46.9
## 10 Belgium     Europe       73.6    68      69.2    70.2    70.9    71.4    72.8
## # … with 132 more rows, 30 more variables: lifeExp_1982 <dbl>,
## #   lifeExp_1987 <dbl>, lifeExp_1992 <dbl>, lifeExp_1997 <dbl>,
## #   lifeExp_2002 <dbl>, lifeExp_2007 <dbl>, pop_1952 <int>, pop_1957 <int>,
## #   pop_1962 <int>, pop_1967 <int>, pop_1972 <int>, pop_1977 <int>,
## #   pop_1982 <int>, pop_1987 <int>, pop_1992 <int>, pop_1997 <int>,
## #   pop_2002 <int>, pop_2007 <int>, gdpPercap_1952 <dbl>, gdpPercap_1957 <dbl>,
## #   gdpPercap_1962 <dbl>, gdpPercap_1967 <dbl>, gdpPercap_1972 <dbl>, …
```
…
Para tener una mejor apreciación de la variable de fecha que crearemos, usaremos `relocate()` para reposicionar a la variable creada.]]
.panel1-mutate_lubr_1-user[

```r
*storms %>%
* select(name:pressure)
```
]
 
.panel2-mutate_lubr_1-user[

```
## # A tibble: 11,859 × 11
##    name   year month   day  hour   lat  long status    
##    <chr> <dbl> <dbl> <int> <dbl> <dbl> <dbl> <chr>     
##  1 Amy    1975     6    27     0  27.5 -79   tropical …
##  2 Amy    1975     6    27     6  28.5 -79   tropical …
##  3 Amy    1975     6    27    12  29.5 -79   tropical …
##  4 Amy    1975     6    27    18  30.5 -79   tropical …
##  5 Amy    1975     6    28     0  31.5 -78.8 tropical …
##  6 Amy    1975     6    28     6  32.4 -78.7 tropical …
##  7 Amy    1975     6    28    12  33.3 -78   tropical …
##  8 Amy    1975     6    28    18  34   -77   tropical …
##  9 Amy    1975     6    29     0  34.4 -75.8 tropical …
## 10 Amy    1975     6    29     6  34   -74.8 tropical …
## # … with 11,849 more rows, and 3 more variables:
## #   category <ord>, wind <int>, pressure <int>
```
…
```r
storms %>%
  select(name:pressure) %>%
* mutate(
*   date = lubridate::make_date(year, month, day)
* )
```
]
 
.panel2-mutate_lubr_1-user[

```
## # A tibble: 11,859 × 12
##    name   year month   day  hour   lat  long status    
##    <chr> <dbl> <dbl> <int> <dbl> <dbl> <dbl> <chr>     
##  1 Amy    1975     6    27     0  27.5 -79   tropical …
##  2 Amy    1975     6    27     6  28.5 -79   tropical …
##  3 Amy    1975     6    27    12  29.5 -79   tropical …
##  4 Amy    1975     6    27    18  30.5 -79   tropical …
##  5 Amy    1975     6    28     0  31.5 -78.8 tropical …
##  6 Amy    1975     6    28     6  32.4 -78.7 tropical …
##  7 Amy    1975     6    28    12  33.3 -78   tropical …
##  8 Amy    1975     6    28    18  34   -77   tropical …
##  9 Amy    1975     6    29     0  34.4 -75.8 tropical …
## 10 Amy    1975     6    29     6  34   -74.8 tropical …
## # … with 11,849 more rows, and 4 more variables:
## #   category <ord>, wind <int>, pressure <int>,
## #   date <date>
```
…
```r
storms %>%
  select(name:pressure) %>%
  mutate(
    date = lubridate::make_date(year, month, day)
  ) %>%
* relocate(date, .before = year)
```
]
 
.panel2-mutate_lubr_1-user[

```
## # A tibble: 11,859 × 12
##    name  date        year month   day  hour   lat  long
##    <chr> <date>     <dbl> <dbl> <int> <dbl> <dbl> <dbl>
##  1 Amy   1975-06-27  1975     6    27     0  27.5 -79  
##  2 Amy   1975-06-27  1975     6    27     6  28.5 -79  
##  3 Amy   1975-06-27  1975     6    27    12  29.5 -79  
##  4 Amy   1975-06-27  1975     6    27    18  30.5 -79  
##  5 Amy   1975-06-28  1975     6    28     0  31.5 -78.8
##  6 Amy   1975-06-28  1975     6    28     6  32.4 -78.7
##  7 Amy   1975-06-28  1975     6    28    12  33.3 -78  
##  8 Amy   1975-06-28  1975     6    28    18  34   -77  
##  9 Amy   1975-06-29  1975     6    29     0  34.4 -75.8
## 10 Amy   1975-06-29  1975     6    29     6  34   -74.8
## # … with 11,849 more rows, and 4 more variables:
## #   status <chr>, category <ord>, wind <int>,
## #   pressure <int>
```
…
