Introducción a R y Tidyverse
…
.line-space1-7[.font110[
Esta función permite poder indicarle a R que las operaciones que hagamos en adelante, sean divididas y aplicadas por las agrupaciones que sea haya formado. Es decir, que se puede hacer la agrupación por una o múltiples variables.
]]

.pull-left[.scroll-output350[

```r
library(tidyverse)
storms %>% 
  filter(year >= 2010) %>% 
  group_by(name)
```

```
## # A tibble: 3,608 × 13
## # Groups:   name [112]
##    name   year month   day  hour   lat
##    <chr> <dbl> <dbl> <int> <dbl> <dbl>
##  1 Alex   2010     6    25    18  16.4
##  2 Alex   2010     6    26     0  16.6
##  3 Alex   2010     6    26     6  16.7
##  4 Alex   2010     6    26    12  16.9
##  5 Alex   2010     6    26    18  17.2
##  6 Alex   2010     6    27     0  17.5
##  7 Alex   2010     6    27     6  18  
##  8 Alex   2010     6    27    12  18.5
##  9 Alex   2010     6    27    18  18.9
## 10 Alex   2010     6    28     0  19.2
## # … with 3,598 more rows, and 7 more
## #   variables: long <dbl>, status <chr>,
## #   category <ord>, wind <int>,
## #   pressure <int>,
## #   tropicalstorm_force_diameter <int>,
## #   hurricane_force_diameter <int>
```
…
.panel[.panel-name[Importación]

Mediante la función `read_csv` podremos importar la data directamente desde **Github**.

.scroll-output350[

```r
covid19 <- read_csv("https://raw.githubusercontent.com/CSSEGISandData/COVID-19/master/csse_covid_19_data/csse_covid_19_time_series/time_series_covid19_deaths_global.csv")
covid19
```

```
## # A tibble: 285 × 964
##    Province…¹ Count…²   Lat   Long 1/22/…³ 1/23/…⁴ 1/24/…⁵ 1/25/…⁶ 1/26/…⁷ 1/27/…⁸ 1/28/…⁹
##    <chr>      <chr>   <dbl>  <dbl>   <dbl>   <dbl>   <dbl>   <dbl>   <dbl>   <dbl>   <dbl>
##  1 <NA>       Afghan…  33.9  67.7        0       0       0       0       0       0       0
##  2 <NA>       Albania  41.2  20.2        0       0       0       0       0       0       0
##  3 <NA>       Algeria  28.0   1.66       0       0       0       0       0       0       0
##  4 <NA>       Andorra  42.5   1.52       0       0       0       0       0       0       0
##  5 <NA>       Angola  -11.2  17.9        0       0       0       0       0       0       0
##  6 <NA>       Antarc… -71.9  23.3        0       0       0       0       0       0       0
##  7 <NA>       Antigu…  17.1 -61.8        0       0       0       0       0       0       0
##  8 <NA>       Argent… -38.4 -63.6        0       0       0       0       0       0       0
##  9 <NA>       Armenia  40.1  45.0        0       0       0       0       0       0       0
## 10 Australia… Austra… -35.5 149.         0       0       0       0       0       0       0
## # … with 275 more rows, 953 more variables: `1/29/20` <dbl>, `1/30/20` <dbl>,
## #   `1/31/20` <dbl>, `2/1/20` <dbl>, `2/2/20` <dbl>, `2/3/20` <dbl>, `2/4/20` <dbl>,
## #   `2/5/20` <dbl>, `2/6/20` <dbl>, `2/7/20` <dbl>, `2/8/20` <dbl>, `2/9/20` <dbl>,
## #   `2/10/20` <dbl>, `2/11/20` <dbl>, `2/12/20` <dbl>, `2/13/20` <dbl>, `2/14/20` <dbl>,
## #   `2/15/20` <dbl>, `2/16/20` <dbl>, `2/17/20` <dbl>, `2/18/20` <dbl>, `2/19/20` <dbl>,
## #   `2/20/20` <dbl>, `2/21/20` <dbl>, `2/22/20` <dbl>, `2/23/20` <dbl>, `2/24/20` <dbl>,
## #   `2/25/20` <dbl>, `2/26/20` <dbl>, `2/27/20` <dbl>, `2/28/20` <dbl>, …
```
…
count: false
 
#Uso de .code[summarise()] 
.line-space1-5[.font110[Recordar que primero debemos *pivotear* la data para poder trabajar con ella. Obtendremos resúmenes de casos por muerte COVID-19 por países.]]
.panel1-summarise_1-user[

```r
*covid19
```
]
 
.panel2-summarise_1-user[

```
## # A tibble: 285 × 964
##    Provi…¹ Count…²   Lat   Long 1/22/…³ 1/23/…⁴ 1/24/…⁵
##    <chr>   <chr>   <dbl>  <dbl>   <dbl>   <dbl>   <dbl>
##  1 <NA>    Afghan…  33.9  67.7        0       0       0
##  2 <NA>    Albania  41.2  20.2        0       0       0
##  3 <NA>    Algeria  28.0   1.66       0       0       0
##  4 <NA>    Andorra  42.5   1.52       0       0       0
##  5 <NA>    Angola  -11.2  17.9        0       0       0
##  6 <NA>    Antarc… -71.9  23.3        0       0       0
##  7 <NA>    Antigu…  17.1 -61.8        0       0       0
##  8 <NA>    Argent… -38.4 -63.6        0       0       0
##  9 <NA>    Armenia  40.1  45.0        0       0       0
## 10 Austra… Austra… -35.5 149.         0       0       0
## # … with 275 more rows, 957 more variables:
## #   `1/25/20` <dbl>, `1/26/20` <dbl>, `1/27/20` <dbl>,
## #   `1/28/20` <dbl>, `1/29/20` <dbl>, `1/30/20` <dbl>,
## #   `1/31/20` <dbl>, `2/1/20` <dbl>, `2/2/20` <dbl>,
## #   `2/3/20` <dbl>, `2/4/20` <dbl>, `2/5/20` <dbl>,
## #   `2/6/20` <dbl>, `2/7/20` <dbl>, `2/8/20` <dbl>,
## #   `2/9/20` <dbl>, `2/10/20` <dbl>, …
```
…
```r
covid19 %>%
* select(-c(Lat:Long)) %>%
* pivot_longer(
*   cols = -c(`Province/State`:`Country/Region`),
*   names_to = "fecha",
*   values_to = "fallecidos"
* )
```
]
 
.panel2-summarise_1-user[

```
## # A tibble: 273,600 × 4
##    `Province/State` `Country/Region` fecha   fallecidos
##    <chr>            <chr>            <chr>        <dbl>
##  1 <NA>             Afghanistan      1/22/20          0
##  2 <NA>             Afghanistan      1/23/20          0
##  3 <NA>             Afghanistan      1/24/20          0
##  4 <NA>             Afghanistan      1/25/20          0
##  5 <NA>             Afghanistan      1/26/20          0
##  6 <NA>             Afghanistan      1/27/20          0
##  7 <NA>             Afghanistan      1/28/20          0
##  8 <NA>             Afghanistan      1/29/20          0
##  9 <NA>             Afghanistan      1/30/20          0
## 10 <NA>             Afghanistan      1/31/20          0
## # … with 273,590 more rows
```
…
.panel2-summarise_1-user[

```
## # A tibble: 273,600 × 4
## # Groups:   Country/Region [199]
##    `Province/State` `Country/Region` fecha   fallecidos
##    <chr>            <chr>            <chr>        <dbl>
##  1 <NA>             Afghanistan      1/22/20          0
##  2 <NA>             Afghanistan      1/23/20          0
##  3 <NA>             Afghanistan      1/24/20          0
##  4 <NA>             Afghanistan      1/25/20          0
##  5 <NA>             Afghanistan      1/26/20          0
##  6 <NA>             Afghanistan      1/27/20          0
##  7 <NA>             Afghanistan      1/28/20          0
##  8 <NA>             Afghanistan      1/29/20          0
##  9 <NA>             Afghanistan      1/30/20          0
## 10 <NA>             Afghanistan      1/31/20          0
## # … with 273,590 more rows
```
…
.panel2-summarise_1-user[

```
## # A tibble: 199 × 5
##    `Country/Region`          M      DE    Max   Min
##    <chr>                 <dbl>   <dbl>  <dbl> <dbl>
##  1 Afghanistan          4152.   3054.    7785     0
##  2 Albania              1904.   1360.    3584     0
##  3 Algeria              3794.   2440.    6879     0
##  4 Andorra               102.     47.6    155     0
##  5 Angola                916.    765.    1917     0
##  6 Antarctica              0       0        0     0
##  7 Antigua and Barbuda    55.8    56.7    145     0
##  8 Argentina           70025.  50773.  129769     0
##  9 Armenia              4283.   3214.    8662     0
## 10 Australia             328.    831.    5423     0
## # … with 189 more rows
```
…
.panel2-summarise_1-user[

```
## # A tibble: 199 × 5
##    `Country/Region`       M      DE     Max   Min
##    <chr>              <dbl>   <dbl>   <dbl> <dbl>
##  1 US               536692. 346945. 1048989     0
##  2 Brazil           376675. 256331.  684425     0
##  3 India            279078. 205913.  528090     0
##  4 Mexico           188019. 119881.  329652     0
##  5 Russia           156987. 141039.  377180     0
##  6 Peru             136348.  77329.  215982     0
##  7 Italy             98512.  55780.  176009     0
##  8 Colombia          77805.  55100.  141646     0
##  9 Iran              77259.  52092.  144085     0
## 10 Indonesia         74076.  64880.  157717     0
## # … with 189 more rows
```
…
count: false
 
#Uso de .code[summarise()] 
.line-space1-5[.font110[Guardaremos la data pivoteada en un objeto llamado covid19_tidy, para no extender demasiado el código. Además, veamos lo sencillo que es poder introducir un filter a los resultados obtenidos.]]
.panel1-summarise_2-user[

```r
*covid19_tidy
```
]
 
.panel2-summarise_2-user[

```
## # A tibble: 273,600 × 4
##    `Province/State` `Country/Region` fecha   fallecidos
##    <chr>            <chr>            <chr>        <dbl>
##  1 <NA>             Afghanistan      1/22/20          0
##  2 <NA>             Afghanistan      1/23/20          0
##  3 <NA>             Afghanistan      1/24/20          0
##  4 <NA>             Afghanistan      1/25/20          0
##  5 <NA>             Afghanistan      1/26/20          0
##  6 <NA>             Afghanistan      1/27/20          0
##  7 <NA>             Afghanistan      1/28/20          0
##  8 <NA>             Afghanistan      1/29/20          0
##  9 <NA>             Afghanistan      1/30/20          0
## 10 <NA>             Afghanistan      1/31/20          0
## # … with 273,590 more rows
```
…
#Uso de .code[summarise()] 
.line-space1-5[.font110[Guardaremos la data pivoteada en un objeto llamado covid19_tidy, para no extender demasiado el código. Además, veamos lo sencillo que es poder introducir un filter a los resultados obtenidos.]]
.panel1-summarise_2-user[

```r
covid19_tidy %>%
* group_by(`Country/Region`)
```
]
 
.panel2-summarise_2-user[

```
## # A tibble: 273,600 × 4
## # Groups:   Country/Region [199]
##    `Province/State` `Country/Region` fecha   fallecidos
##    <chr>            <chr>            <chr>        <dbl>
##  1 <NA>             Afghanistan      1/22/20          0
##  2 <NA>             Afghanistan      1/23/20          0
##  3 <NA>             Afghanistan      1/24/20          0
##  4 <NA>             Afghanistan      1/25/20          0
##  5 <NA>             Afghanistan      1/26/20          0
##  6 <NA>             Afghanistan      1/27/20          0
##  7 <NA>             Afghanistan      1/28/20          0
##  8 <NA>             Afghanistan      1/29/20          0
##  9 <NA>             Afghanistan      1/30/20          0
## 10 <NA>             Afghanistan      1/31/20          0
## # … with 273,590 more rows
```
…
.panel2-summarise_2-user[

```
## # A tibble: 199 × 5
##    `Country/Region`          M      DE    Max   Min
##    <chr>                 <dbl>   <dbl>  <dbl> <dbl>
##  1 Afghanistan          4152.   3054.    7785     0
##  2 Albania              1904.   1360.    3584     0
##  3 Algeria              3794.   2440.    6879     0
##  4 Andorra               102.     47.6    155     0
##  5 Angola                916.    765.    1917     0
##  6 Antarctica              0       0        0     0
##  7 Antigua and Barbuda    55.8    56.7    145     0
##  8 Argentina           70025.  50773.  129769     0
##  9 Armenia              4283.   3214.    8662     0
## 10 Australia             328.    831.    5423     0
## # … with 189 more rows
```
…
.panel2-summarise_2-user[

```
## # A tibble: 199 × 5
##    `Country/Region`       M      DE     Max   Min
##    <chr>              <dbl>   <dbl>   <dbl> <dbl>
##  1 US               536692. 346945. 1048989     0
##  2 Brazil           376675. 256331.  684425     0
##  3 India            279078. 205913.  528090     0
##  4 Mexico           188019. 119881.  329652     0
##  5 Russia           156987. 141039.  377180     0
##  6 Peru             136348.  77329.  215982     0
##  7 Italy             98512.  55780.  176009     0
##  8 Colombia          77805.  55100.  141646     0
##  9 Iran              77259.  52092.  144085     0
## 10 Indonesia         74076.  64880.  157717     0
## # … with 189 more rows
```
…
count: false
 
#Uso de .code[summarise()] 
.line-space1-5[.font110[Guardaremos la data pivoteada en un objeto llamado covid19_tidy, para no extender demasiado el código. Además, veamos lo sencillo que es poder introducir un filter a los resultados obtenidos.]]
.panel1-summarise_3-user[

```r
*covid19_tidy
```
]
 
.panel2-summarise_3-user[

```
## # A tibble: 273,600 × 4
##    `Province/State` `Country/Region` fecha   fallecidos
##    <chr>            <chr>            <chr>        <dbl>
##  1 <NA>             Afghanistan      1/22/20          0
##  2 <NA>             Afghanistan      1/23/20          0
##  3 <NA>             Afghanistan      1/24/20          0
##  4 <NA>             Afghanistan      1/25/20          0
##  5 <NA>             Afghanistan      1/26/20          0
##  6 <NA>             Afghanistan      1/27/20          0
##  7 <NA>             Afghanistan      1/28/20          0
##  8 <NA>             Afghanistan      1/29/20          0
##  9 <NA>             Afghanistan      1/30/20          0
## 10 <NA>             Afghanistan      1/31/20          0
## # … with 273,590 more rows
```
…
```r
covid19_tidy %>%
* mutate(
*   fecha = lubridate::mdy(fecha)
* )
```
]
 
.panel2-summarise_3-user[

```
## # A tibble: 273,600 × 4
##    `Province/State` `Country/Region` fecha      falle…¹
##    <chr>            <chr>            <date>       <dbl>
##  1 <NA>             Afghanistan      2020-01-22       0
##  2 <NA>             Afghanistan      2020-01-23       0
##  3 <NA>             Afghanistan      2020-01-24       0
##  4 <NA>             Afghanistan      2020-01-25       0
##  5 <NA>             Afghanistan      2020-01-26       0
##  6 <NA>             Afghanistan      2020-01-27       0
##  7 <NA>             Afghanistan      2020-01-28       0
##  8 <NA>             Afghanistan      2020-01-29       0
##  9 <NA>             Afghanistan      2020-01-30       0
## 10 <NA>             Afghanistan      2020-01-31       0
## # … with 273,590 more rows, and abbreviated variable
## #   name ¹​fallecidos
```
…
```r
covid19_tidy %>%
  mutate(
    fecha = lubridate::mdy(fecha)
  ) %>%
* filter(fecha > "2022-01-01")
```
]
 
.panel2-summarise_3-user[

```
## # A tibble: 70,965 × 4
##    `Province/State` `Country/Region` fecha      falle…¹
##    <chr>            <chr>            <date>       <dbl>
##  1 <NA>             Afghanistan      2022-01-02    7361
##  2 <NA>             Afghanistan      2022-01-03    7364
##  3 <NA>             Afghanistan      2022-01-04    7365
##  4 <NA>             Afghanistan      2022-01-05    7367
##  5 <NA>             Afghanistan      2022-01-06    7367
##  6 <NA>             Afghanistan      2022-01-07    7368
##  7 <NA>             Afghanistan      2022-01-08    7369
##  8 <NA>             Afghanistan      2022-01-09    7373
##  9 <NA>             Afghanistan      2022-01-10    7373
## 10 <NA>             Afghanistan      2022-01-11    7374
## # … with 70,955 more rows, and abbreviated variable
## #   name ¹​fallecidos
```
…
```r
covid19_tidy %>%
  mutate(
    fecha = lubridate::mdy(fecha)
  ) %>%
  filter(fecha > "2022-01-01") %>%
* group_by(`Country/Region`)
```
]
 
.panel2-summarise_3-user[

```
## # A tibble: 70,965 × 4
## # Groups:   Country/Region [199]
##    `Province/State` `Country/Region` fecha      falle…¹
##    <chr>            <chr>            <date>       <dbl>
##  1 <NA>             Afghanistan      2022-01-02    7361
##  2 <NA>             Afghanistan      2022-01-03    7364
##  3 <NA>             Afghanistan      2022-01-04    7365
##  4 <NA>             Afghanistan      2022-01-05    7367
##  5 <NA>             Afghanistan      2022-01-06    7367
##  6 <NA>             Afghanistan      2022-01-07    7368
##  7 <NA>             Afghanistan      2022-01-08    7369
##  8 <NA>             Afghanistan      2022-01-09    7373
##  9 <NA>             Afghanistan      2022-01-10    7373
## 10 <NA>             Afghanistan      2022-01-11    7374
## # … with 70,955 more rows, and abbreviated variable
## #   name ¹​fallecidos
```
…
.panel2-summarise_3-user[

```
## # A tibble: 199 × 5
##    `Country/Region`          M      DE    Max    Min
##    <chr>                 <dbl>   <dbl>  <dbl>  <dbl>
##  1 Afghanistan           7644.  123.     7785   7361
##  2 Albania               3473.   86.7    3584   3220
##  3 Algeria               6804.  153.     6879   6291
##  4 Andorra                151.    3.66    155    140
##  5 Angola                1897.   22.4    1917   1772
##  6 Antarctica               0     0         0      0
##  7 Antigua and Barbuda    136.    6.91    145    119
##  8 Argentina           126999. 3539.   129769 117204
##  9 Armenia               8504.  225.     8662   7977
## 10 Australia              981. 1375.     5423      1
## # … with 189 more rows
```
…
.panel2-summarise_3-user[

```
## # A tibble: 199 × 5
##    `Country/Region`       M     DE     Max    Min
##    <chr>              <dbl>  <dbl>   <dbl>  <dbl>
##  1 US               980396. 57614. 1048989 826412
##  2 Brazil           659860. 18595.  684425 619401
##  3 India            517587. 12736.  528090 481893
##  4 Russia           358631. 20733.  377180 304284
##  5 Mexico           321036.  8443.  329652 299544
##  6 Peru             211650.  3499.  215982 202782
##  7 Italy            161672. 10253.  176009 137646
##  8 Indonesia        153413.  4966.  157717 144097
##  9 Iran             139366.  3719.  144085 131680
## 10 Colombia         138754.  2988.  141646 130026
## # … with 189 more rows
```
…
.pull-right[
.scroll-output375[

```r
rec94 <- rec94 %>%
  mutate(
    HHID = str_sub(CASEID, 1, str_length(CASEID) - 3),
    CASEID = str_sub(CASEID, -2, -1),
    CASEID = as.numeric(CASEID),
    .after = ID1
  )
```

```
## # A tibble: 17,242 × 62
##      ID1 HHID         CASEID IDX94 S410B S411B   S411F   S411G   S411H   S411I  
##    <dbl> <chr>         <dbl> <dbl> <dbl> <dbl+l> <dbl+l> <dbl+l> <dbl+l> <dbl+l>
##  1  2020 "      0001…      2     1  9    NA      NA      NA      NA      NA     
##  2  2020 "      0001…      2     1  9    NA      NA      NA      NA      NA     
##  3  2020 "      0001…      2     1  8    NA      NA      NA      NA      NA     
##  4  2020 "      0001…      2     1  9    NA      NA      NA      NA      NA     
##  5  2020 "      0001…      2     1  9    NA      NA      NA      NA      NA     
##  6  2020 "      0002…      2     1  9    NA      NA      NA      NA      NA     
##  7  2020 "      0002…      2     1  8    NA      NA      NA      NA      NA     
##  8  2020 "      0003…      2     1  7     1 [Si]  1 [Si]  1 [Si]  1 [Si]  1 [Si]
##  9  2020 "      0003…      2     2 NA    NA      NA      NA      NA      NA     
## 10  2020 "      0003…      2     1  9     1 [Si]  1 [Si]  1 [Si]  1 [Si]  1 [Si]
## # … with 17,232 more rows, and 52 more variables: S411J <dbl+lbl>,
## #   S411K <dbl+lbl>, S411L <dbl+lbl>, S411BA <dbl+lbl>, S411CA <dbl+lbl>,
## #   S411DA <dbl+lbl>, S411EA <dbl+lbl>, S413 <dbl+lbl>, S422I <dbl+lbl>,
## #   S426B <dbl+lbl>, S426E <dbl+lbl>, S426FA <dbl+lbl>, S426FB <dbl+lbl>,
## #   S426GA <dbl+lbl>, S426GB <dbl+lbl>, S426GC <dbl+lbl>, S426GD <dbl+lbl>,
## #   S426GE <dbl+lbl>, S430C <dbl+lbl>, S430D <dbl+lbl>, S431A <dbl+lbl>,
## #   S425A <dbl+lbl>, S432 <dbl+lbl>, S432AD <dbl+lbl>, S432AM <dbl+lbl>, …
```
…
