Introducción a R y Tidyverse II
…
**Código:**

````
```{r}
as_tibble(mtcars) %>%
          print(n = 3)
```
````

**Salida: **

```
## # A tibble: 32 × 11
##     mpg   cyl  disp    hp  drat    wt  qsec    vs    am  gear  carb
##   <dbl> <dbl> <dbl> <dbl> <dbl> <dbl> <dbl> <dbl> <dbl> <dbl> <dbl>
## 1  21       6   160   110  3.9   2.62  16.5     0     1     4     4
## 2  21       6   160   110  3.9   2.88  17.0     0     1     4     4
## 3  22.8     4   108    93  3.85  2.32  18.6     1     1     4     1
## # … with 29 more rows
```
…
